<?xml version="1.0" encoding="utf-8"?>
<!-- Generator: Adobe Illustrator 19.0.0, SVG Export Plug-In . SVG Version: 6.00 Build 0)  -->
<svg version="1.1" id="Layer_1" xmlns="http://www.w3.org/2000/svg" xmlns:xlink="http://www.w3.org/1999/xlink" x="0px" y="0px"
	 viewBox="0 0 360 81" style="enable-background:new 0 0 360 81;" xml:space="preserve">
<style type="text/css">
	.st0{fill:#FFFDFD;}
</style>
<path id="XMLID_2_" class="st0" d="M360,0c0,0-67.8,33.8-158,51C94.5,71.5,0.2,70.3,0.2,70.3L0,81h360V0z"/>
</svg>
